Exploratory Factor Analysis (EFA)
…
Scale and distribution

Test_Data %>% select(-gender, -education, - age) %>% 
  mutate(Temp_Id = seq(1, dim(Test_Data)[1])) %>% 
  pivot_longer(cols = -Temp_Id, names_to = "Variable", values_to = "Score") %>% 
  group_by(Variable, Score) %>% summarise(Total = n()) %>% 
  pivot_wider(id_cols = Variable, names_from = Score, values_from = Total, values_fill = 0)

`summarise()` has grouped output by 'Variable'. You can override using the
`.groups` argument.

# A tibble: 25 × 7
# Groups:   Variable [25]
   Variable   `1`   `2`   `3`   `4`   `5`   `6`
   <chr>    <int> <int> <int> <int> <int> <int>
 1 A1         767   666   315   260   163    65
 2 A2          34    99   115   433   830   725
 3 A3          71   133   154   456   804   618
 4 A4          96   159   141   356   545   939
 5 A5          48   145   193   490   785   575
 6 C1          49   121   207   505   838   516
 7 C2          67   189   228   504   792   456
 8 C3          66   195   227   610   739   399
 9 C4         650   650   368   348   174    46
10 C5         420   473   266   485   377   215
# ℹ 15 more rows
…
